{
  "project_info": {
    "project_number": "242846307136",
    "project_id": "nepaligeet-1521928803149"
  },
  "client": [
    {
      "client_info": {
        "mobilesdk_app_id": "1:242846307136:android:8370a2e2bc719fc7",
        "android_client_info": {
          "package_name": "com.example.aakarshrestha.mykotlinapplication"
        }
      },
      "oauth_client": [
        {
          "client_id": "242846307136-ip1hm7i1nr58rd0oleahm2n3mfanrb90.apps.googleusercontent.com",
          "client_type": 1,
          "android_info": {
            "package_name": "com.example.aakarshrestha.mykotlinapplication",
            "certificate_hash": "da55732afa78b66fd0fa7097cf133e21ced2f3b6"
          }
        },
        {
          "client_id": "242846307136-b5s39ubqf15qnhu06r87cdm4ejq4giqc.apps.googleusercontent.com",
          "client_type": 3
        }
      ],
      "api_key": [
        {
          "current_key": "AIzaSyBBEHZPCRUCTZdxQEBLoVvSpjVy3DW4Z_w"
        }
      ],
      "services": {
        "analytics_service": {
          "status": 1
        },
        "appinvite_service": {
          "status": 1,
          "other_platform_oauth_client": []
        },
        "ads_service": {
          "status": 1
        }
      }
    }
  ],
  "configuration_version": "1"
}